{
  "title": "xc-seed-rest",
  "envs": {
    "dev": {
      "db": [
        {
          "client": "mysql",
          "connection": {
            "host": "localhost",
            "port": "3306",
            "user": "root",
            "password": "password",
            "database": "sakila"
          },
          "meta": {
            "tableName": "_evolutions",
            "dbAlias": "primary"
          }
        }
      ],
      "api": {}
    }
  },
  "workingEnv": "dev",
  "meta": {
    "version": "0.5",
    "seedsFolder": "seeds",
    "queriesFolder": "queries",
    "apisFolder": "apis",
    "apiType": "rest"
  },
  "api": {}
}